%YAML 1.1
%TAG !u! tag:unity3d.com,2011:
--- !u!1001 &1351758650362627595
PrefabInstance:
  m_ObjectHideFlags: 0
  serializedVersion: 2
  m_Modification:
    m_TransformParent: {fileID: 0}
    m_Modifications:
    - target: {fileID: -3498892096477147638, guid: c54ee37e0f7431742a24f563070fbef4, type: 3}
      propertyPath: spawnPos
      value: 
      objectReference: {fileID: 4359254496949757850}
    - target: {fileID: -3498892096477147638, guid: c54ee37e0f7431742a24f563070fbef4, type: 3}
      propertyPath: unitPrefab
      value: 
      objectReference: {fileID: 2001150795042120587, guid: 9ffda5501e265ba4ea35cea84b7195f6, type: 3}
    - target: {fileID: 858014188533987283, guid: c54ee37e0f7431742a24f563070fbef4, type: 3}
      propertyPath: m_Materials.Array.data[0]
      value: 
      objectReference: {fileID: 2100000, guid: 45c136d2f9a6e7041bdc417d6d012335, type: 2}
    - target: {fileID: 1699628042815177366, guid: c54ee37e0f7431742a24f563070fbef4, type: 3}
      propertyPath: m_Materials.Array.data[0]
      value: 
      objectReference: {fileID: 2100000, guid: dcde948b193d15c4aa966ce4c352ce44, type: 2}
    - target: {fileID: 2497692703430562576, guid: c54ee37e0f7431742a24f563070fbef4, type: 3}
      propertyPath: onInteractionEffect
      value: 
      objectReference: {fileID: 5548387489826756545}
    - target: {fileID: 3518738610502277755, guid: c54ee37e0f7431742a24f563070fbef4, type: 3}
      propertyPath: m_Materials.Array.data[0]
      value: 
      objectReference: {fileID: 2100000, guid: 951b6150a1dc7774ca59814b5404f7e8, type: 2}
    - target: {fileID: 3938772780459336605, guid: c54ee37e0f7431742a24f563070fbef4, type: 3}
      propertyPath: InitialModule.startColor.maxColor.b
      value: 0.2392157
      objectReference: {fileID: 0}
    - target: {fileID: 3938772780459336605, guid: c54ee37e0f7431742a24f563070fbef4, type: 3}
      propertyPath: InitialModule.startColor.maxColor.g
      value: 0
      objectReference: {fileID: 0}
    - target: {fileID: 3938772780459336605, guid: c54ee37e0f7431742a24f563070fbef4, type: 3}
      propertyPath: InitialModule.startColor.maxColor.r
      value: 1
      objectReference: {fileID: 0}
    - target: {fileID: 3970520749433237799, guid: c54ee37e0f7431742a24f563070fbef4, type: 3}
      propertyPath: m_Materials.Array.data[0]
      value: 
      objectReference: {fileID: 2100000, guid: fa3df2090ce31004eac363e5da98da97, type: 2}
    - target: {fileID: 4194604763193579946, guid: c54ee37e0f7431742a24f563070fbef4, type: 3}
      propertyPath: resourceStorage
      value: 
      objectReference: {fileID: 11400000, guid: cc30e3a671c921840a03b46b4c471cf1, type: 2}
    - target: {fileID: 5644104157829631869, guid: c54ee37e0f7431742a24f563070fbef4, type: 3}
      propertyPath: m_Materials.Array.data[0]
      value: 
      objectReference: {fileID: 0}
    - target: {fileID: 5913184418049427783, guid: c54ee37e0f7431742a24f563070fbef4, type: 3}
      propertyPath: m_RootOrder
      value: 0
      objectReference: {fileID: 0}
    - target: {fileID: 5913184418049427783, guid: c54ee37e0f7431742a24f563070fbef4, type: 3}
      propertyPath: m_LocalPosition.x
      value: 0
      objectReference: {fileID: 0}
    - target: {fileID: 5913184418049427783, guid: c54ee37e0f7431742a24f563070fbef4, type: 3}
      propertyPath: m_LocalPosition.y
      value: 0
      objectReference: {fileID: 0}
    - target: {fileID: 5913184418049427783, guid: c54ee37e0f7431742a24f563070fbef4, type: 3}
      propertyPath: m_LocalPosition.z
      value: 37.6
      objectReference: {fileID: 0}
    - target: {fileID: 5913184418049427783, guid: c54ee37e0f7431742a24f563070fbef4, type: 3}
      propertyPath: m_LocalRotation.w
      value: 0
      objectReference: {fileID: 0}
    - target: {fileID: 5913184418049427783, guid: c54ee37e0f7431742a24f563070fbef4, type: 3}
      propertyPath: m_LocalRotation.x
      value: 0
      objectReference: {fileID: 0}
    - target: {fileID: 5913184418049427783, guid: c54ee37e0f7431742a24f563070fbef4, type: 3}
      propertyPath: m_LocalRotation.y
      value: 1
      objectReference: {fileID: 0}
    - target: {fileID: 5913184418049427783, guid: c54ee37e0f7431742a24f563070fbef4, type: 3}
      propertyPath: m_LocalRotation.z
      value: 0
      objectReference: {fileID: 0}
    - target: {fileID: 5913184418049427783, guid: c54ee37e0f7431742a24f563070fbef4, type: 3}
      propertyPath: m_LocalEulerAnglesHint.x
      value: 0
      objectReference: {fileID: 0}
    - target: {fileID: 5913184418049427783, guid: c54ee37e0f7431742a24f563070fbef4, type: 3}
      propertyPath: m_LocalEulerAnglesHint.y
      value: 180
      objectReference: {fileID: 0}
    - target: {fileID: 5913184418049427783, guid: c54ee37e0f7431742a24f563070fbef4, type: 3}
      propertyPath: m_LocalEulerAnglesHint.z
      value: 0
      objectReference: {fileID: 0}
    - target: {fileID: 6432669733195667334, guid: c54ee37e0f7431742a24f563070fbef4, type: 3}
      propertyPath: resourceStorage
      value: 
      objectReference: {fileID: 0}
    - target: {fileID: 6446465372134480002, guid: c54ee37e0f7431742a24f563070fbef4, type: 3}
      propertyPath: m_Materials.Array.data[0]
      value: 
      objectReference: {fileID: 2100000, guid: 4516aef7649b74a46ab131080918ceb1, type: 2}
    - target: {fileID: 6790790877271118282, guid: c54ee37e0f7431742a24f563070fbef4, type: 3}
      propertyPath: InitialModule.startColor.maxColor.b
      value: 0.1568627
      objectReference: {fileID: 0}
    - target: {fileID: 6790790877271118282, guid: c54ee37e0f7431742a24f563070fbef4, type: 3}
      propertyPath: InitialModule.startColor.maxColor.g
      value: 0.023529414
      objectReference: {fileID: 0}
    - target: {fileID: 6790790877271118282, guid: c54ee37e0f7431742a24f563070fbef4, type: 3}
      propertyPath: InitialModule.startColor.maxColor.r
      value: 0.737255
      objectReference: {fileID: 0}
    - target: {fileID: 6790790877271118282, guid: c54ee37e0f7431742a24f563070fbef4, type: 3}
      propertyPath: ColorModule.gradient.maxGradient.atime0
      value: 0
      objectReference: {fileID: 0}
    - target: {fileID: 6790790877271118282, guid: c54ee37e0f7431742a24f563070fbef4, type: 3}
      propertyPath: ColorModule.gradient.maxGradient.key0.a
      value: 1
      objectReference: {fileID: 0}
    - target: {fileID: 6837392629507604019, guid: c54ee37e0f7431742a24f563070fbef4, type: 3}
      propertyPath: m_Materials.Array.data[0]
      value: 
      objectReference: {fileID: 2100000, guid: dcde948b193d15c4aa966ce4c352ce44, type: 2}
    - target: {fileID: 7134140831974851257, guid: c54ee37e0f7431742a24f563070fbef4, type: 3}
      propertyPath: m_Materials.Array.data[0]
      value: 
      objectReference: {fileID: 2100000, guid: dcde948b193d15c4aa966ce4c352ce44, type: 2}
    - target: {fileID: 7377924689425064168, guid: c54ee37e0f7431742a24f563070fbef4, type: 3}
      propertyPath: m_Materials.Array.data[0]
      value: 
      objectReference: {fileID: 2100000, guid: 4916f11766d32d84db7cb115c30cb178, type: 2}
    - target: {fileID: 7806292461818291596, guid: c54ee37e0f7431742a24f563070fbef4, type: 3}
      propertyPath: m_Name
      value: EnemyBase Variant
      objectReference: {fileID: 0}
    - target: {fileID: 7806292461818291596, guid: c54ee37e0f7431742a24f563070fbef4, type: 3}
      propertyPath: m_TagString
      value: EnemyBase
      objectReference: {fileID: 0}
    - target: {fileID: 8081865038542233998, guid: c54ee37e0f7431742a24f563070fbef4, type: 3}
      propertyPath: m_Materials.Array.data[0]
      value: 
      objectReference: {fileID: 2100000, guid: 23e57b7833a74b74d9eeb5db169ad149, type: 2}
    m_RemovedComponents:
    - {fileID: 3913675757756958560, guid: c54ee37e0f7431742a24f563070fbef4, type: 3}
    - {fileID: 6432669733195667334, guid: c54ee37e0f7431742a24f563070fbef4, type: 3}
  m_SourcePrefab: {fileID: 100100000, guid: c54ee37e0f7431742a24f563070fbef4, type: 3}
--- !u!4 &4359254496949757850 stripped
Transform:
  m_CorrespondingSourceObject: {fileID: 3367926757609693585, guid: c54ee37e0f7431742a24f563070fbef4, type: 3}
  m_PrefabInstance: {fileID: 1351758650362627595}
  m_PrefabAsset: {fileID: 0}
--- !u!198 &5548387489826756545 stripped
ParticleSystem:
  m_CorrespondingSourceObject: {fileID: 6790790877271118282, guid: c54ee37e0f7431742a24f563070fbef4, type: 3}
  m_PrefabInstance: {fileID: 1351758650362627595}
  m_PrefabAsset: {fileID: 0}
