%YAML 1.1
%TAG !u! tag:unity3d.com,2011:
--- !u!114 &-5623953877173221699
MonoBehaviour:
  m_ObjectHideFlags: 11
  m_CorrespondingSourceObject: {fileID: 0}
  m_PrefabInstance: {fileID: 0}
  m_PrefabAsset: {fileID: 0}
  m_GameObject: {fileID: 0}
  m_Enabled: 1
  m_EditorHideFlags: 0
  m_Script: {fileID: 11500000, guid: d0353a89b1f911e48b9e16bdc9f2e058, type: 3}
  m_Name: 
  m_EditorClassIdentifier: 
  version: 5
--- !u!21 &2100000
Material:
  serializedVersion: 6
  m_ObjectHideFlags: 0
  m_CorrespondingSourceObject: {fileID: 0}
  m_PrefabInstance: {fileID: 0}
  m_PrefabAsset: {fileID: 0}
  m_Name: PlayerInteractionField
  m_Shader: {fileID: -6465566751694194690, guid: c3cc8a32249071648bb15cfdcb354dd7, type: 3}
  m_ShaderKeywords: 
  m_LightmapFlags: 4
  m_EnableInstancingVariants: 0
  m_DoubleSidedGI: 0
  m_CustomRenderQueue: -1
  stringTagMap: {}
  disabledShaderPasses: []
  m_SavedProperties:
    serializedVersion: 3
    m_TexEnvs:
    - unity_Lightmaps:
        m_Texture: {fileID: 0}
        m_Scale: {x: 1, y: 1}
        m_Offset: {x: 0, y: 0}
    - unity_LightmapsInd:
        m_Texture: {fileID: 0}
        m_Scale: {x: 1, y: 1}
        m_Offset: {x: 0, y: 0}
    - unity_ShadowMasks:
        m_Texture: {fileID: 0}
        m_Scale: {x: 1, y: 1}
        m_Offset: {x: 0, y: 0}
    m_Ints: []
    m_Floats:
    - Vector1_0bda18557b3a47c2a6dcdc104d92eba0: -6.1
    - Vector1_5465dc121924400db0a25f057d14b4de: 0
    - Vector1_570df56700ca4185970923efdd82d193: 5
    - Vector1_5b97176a03204763a551aca9bc5f827a: 12
    - Vector1_655fa58545af439a85864cfd6cf32100: 1
    - Vector1_75c18d7b00784573928e37f7247a2b87: 1
    - Vector1_85a06a842f574b8390429e99a5ab642f: 0.6
    - Vector1_9493cc56bdc5424c97f624d41e19a75a: 0.2
    - Vector1_c1d0455ddc224bcb93ccf59b380a9951: 2
    - _Float: 1.77
    - _GradientShift: 0
    - _QueueControl: 0
    - _QueueOffset: 0
    m_Colors:
    - Color_ad2fc597577b41cca27f4c2892d020cb: {r: 0, g: 0.4269662, b: 1, a: 0.03137255}
    - Color_d31d86edda794678b14639dcf377e3bc: {r: 0, g: 0.39607844, b: 0.9333334, a: 1}
    - Color_d5de61ea1cac4de2b140d3ea439731c3: {r: 1, g: 1, b: 1, a: 0}
  m_BuildTextureStacks: []
